sjs_COVID-19 Lab
…
report_03_24_2020 %>% 
  group_by(Country.Region) %>% 
  summarise(Deaths = sum(Deaths)) %>% 
  arrange(desc(Deaths))

## # A tibble: 169 x 2
##    Country.Region Deaths
##    <chr>           <dbl>
##  1 Italy            6820
##  2 China            3281
##  3 Spain            2808
##  4 Iran             1934
##  5 France           1102
##  6 US                706
##  7 United Kingdom    423
##  8 Netherlands       277
##  9 Germany           157
## 10 Belgium           122
## # ... with 159 more rows
…
